DP4SS - 10 Exploring Data
…
Package dplyr has a somewhat nuanced syntax that is easy to master. Pay attention:

Piping: Package dplyr uses the pipe operator, or %>%, which:

Passes data frames through some new function, emerging as an altered data frame

Begins with a data frame input in the left hand side

Ends with a data frame output from the right hand side

parks %>%                                         # Specify data frame and pipe
  filter(Facility == "Allegany Red House Area")   # Pass via function `filter()`

# A tibble: 21 × 5
    Year Region   County      Facility                Attendance
   <dbl> <chr>    <chr>       <chr>                        <dbl>
 1  2023 Allegany Cattaraugus Allegany Red House Area     707529
 2  2022 Allegany Cattaraugus Allegany Red House Area     712217
 3  2021 Allegany Cattaraugus Allegany Red House Area     745792
 4  2020 Allegany Cattaraugus Allegany Red House Area     665081
 5  2019 Allegany Cattaraugus Allegany Red House Area     718483
 6  2018 Allegany Cattaraugus Allegany Red House Area     712217
 7  2017 Allegany Cattaraugus Allegany Red House Area     730926
 8  2016 Allegany Cattaraugus Allegany Red House Area     715179
 9  2015 Allegany Cattaraugus Allegany Red House Area     750751
10  2014 Allegany Cattaraugus Allegany Red House Area     686068
# ℹ 11 more rows

Bare Variable Names: Once the dataset is named, you need not type it again.

R recognizes when the data frame has been called

Therefore, variables need only be named, without the dataset$x notation

names(parks)

[1] "Year"       "Region"     "County"     "Facility"   "Attendance"

parks %>%                             # Call dataset object name
  select(Year, Region, Attendance)    # Use bare variable names

# A tibble: 5,007 × 3
    Year Region   Attendance
   <dbl> <chr>         <dbl>
 1  2023 Allegany     792323
 2  2023 Allegany     707529
 3  2023 Allegany      18019
 4  2023 Allegany      91967
 5  2023 Allegany     152695
 6  2023 Allegany     110265
 7  2023 Allegany      36725
 8  2023 Central      235154
 9  2023 Central       67994
10  2023 Central       60649
# ℹ 4,997 more rows
…
10.9.3 Group By-Summarize Operations

As noted, we must use a function to operate on grouped data.

Function summarize() allows us to make new variables on grouped data

Within summarize(), the basic formula is: new_variable = function(existing_variable)

Here, we create new variable Average from existing variable Attendance:

parks %>%                                 # Invoke "parks"
  group_by(Year) %>%                      # Group by "Year"
  summarize(Average = mean(Attendance))   # Create "Average" with `mean()`

# A tibble: 21 × 2
    Year Average
   <dbl>   <dbl>
 1  2003 220094.
 2  2004 223606.
 3  2005 235422.
 4  2006 230406.
 5  2007 240452.
 6  2008 231775.
 7  2009 240104.
 8  2010 244485.
 9  2011 242465.
10  2012 255553.
# ℹ 11 more rows

Multiple Summary Variables: Create multiple new variables in one summarize() call.

parks %>%
  group_by(Year) %>%
  summarize(Mean = mean(Attendance),
            Median = median(Attendance),
            Maximum = max(Attendance),
            Records = n())                # Create multiple new variables

# A tibble: 21 × 5
    Year    Mean Median Maximum Records
   <dbl>   <dbl>  <dbl>   <dbl>   <int>
 1  2003 220094. 48199  7390268     236
 2  2004 223606. 47764  7779887     236
 3  2005 235422. 50426. 7762999     236
 4  2006 230406. 50374. 7756133     236
 5  2007 240452. 61394. 7924083     236
 6  2008 231775. 57804. 7925725     236
 7  2009 240104. 60405  8130765     236
 8  2010 244485. 58895  8274942     236
 9  2011 242465. 54960  8448914     236
10  2012 255553. 62370. 8690962     236
# ℹ 11 more rows
…
Suppose we group by one variable with 5 categories and one with 10

Total permutations equals 5 * 10, or 50 groups

Note, also, that not grouping on variables will drop ungrouped variables

In other words, grouping by X, not Y, means Y is then excluded

parks %>%
  group_by(Year, Region) %>%              # Group on variables "Year", "Region"
  summarize(Mean = mean(Attendance),
            Median = median(Attendance))

# A tibble: 231 × 4
# Groups:   Year [21]
    Year Region           Mean  Median
   <dbl> <chr>           <dbl>   <dbl>
 1  2003 Allegany      351875  192079 
 2  2003 Central        88790.  41128.
 3  2003 Finger Lakes   93691.  42539 
 4  2003 Genesee        92704.  15320 
 5  2003 Long Island   624115. 196520 
 6  2003 New York City 332013. 118444 
 7  2003 Niagara       536725.  93284 
 8  2003 Palisades     198938.  19887 
 9  2003 Saratoga      100925.  48230 
10  2003 Taconic       161300.  93131 
# ℹ 221 more rows

Creating Summaries of Summaries: Use variables from summarize() in the same call!

parks %>%
  group_by(Year) %>%
  summarize(Mean = mean(Attendance),
            Total = sum(Attendance),                      # Create "Total"
            Proportion = Total / sum(parks$Attendance))   # Use "Total" in formula

# A tibble: 21 × 4
    Year    Mean    Total Proportion
   <dbl>   <dbl>    <dbl>      <dbl>
 1  2003 220094. 51942100     0.0382
 2  2004 223606. 52770940     0.0389
 3  2005 235422. 55559694     0.0409
 4  2006 230406. 54375864     0.0400
 5  2007 240452. 56746576     0.0418
 6  2008 231775. 54698971     0.0403
 7  2009 240104. 56664442     0.0417
 8  2010 244485. 57698351     0.0425
 9  2011 242465. 57221809     0.0421
10  2012 255553. 60310499     0.0444
# ℹ 11 more rows

Assigning Summary Output: Preface summarize() calles with assignment, <-.

mean_att <- parks %>%                 # Assign expression to "mean_att"
  group_by(Year) %>%
  summarize(Mean = mean(Attendance))

mean_att                              # Autoprint results

# A tibble: 21 × 2
    Year    Mean
   <dbl>   <dbl>
 1  2003 220094.
 2  2004 223606.
 3  2005 235422.
 4  2006 230406.
 5  2007 240452.
 6  2008 231775.
 7  2009 240104.
 8  2010 244485.
 9  2011 242465.
10  2012 255553.
# ℹ 11 more rows
…
